Final Project
…
safmr_fy2023 <- safmr_fy2023|>
  mutate(year = 2023)|>
  mutate(state = gsub("[, ]", "",stri_extract_first_regex(area_name,", \\p{L}+ ")))|>
  mutate(area = gsub("[,]", "", stri_extract_all_regex(area_name,".*[^,],")))
  
safmr_fy2024 <- safmr_fy2024|>
  mutate(year = 2024)|>
  mutate(state = gsub("[, ]", "",stri_extract_first_regex(area_name,", \\p{L}+ ")))|>
  mutate(area = gsub("[,]", "", stri_extract_all_regex(area_name,".*[^,],")))

#Print one table
safmr_fy2019

## # A tibble: 26,019 x 21
##    zip   area_code  area_name safmr_0br safmr_0br_90 safmr_0br_110 safmr_1br
##    <chr> <chr>      <chr>         <dbl>        <dbl>         <dbl>     <dbl>
##  1 76437 METRO1018~ Abilene,~       510          459           561       550
##  2 76443 METRO1018~ Abilene,~       510          459           561       550
##  3 76464 METRO1018~ Abilene,~       510          459           561       550
##  4 76469 METRO1018~ Abilene,~       520          468           572       550
##  5 79501 METRO1018~ Abilene,~       600          540           660       630
##  6 79503 METRO1018~ Abilene,~       550          495           605       570
##  7 79504 METRO1018~ Abilene,~       540          486           594       560
##  8 79508 METRO1018~ Abilene,~       650          585           715       670
##  9 79510 METRO1018~ Abilene,~       610          549           671       640
## 10 79519 METRO1018~ Abilene,~       600          540           660       630
## # i 26,009 more rows
## # i 14 more variables: safmr_1br_90 <dbl>, safmr_1br_110 <dbl>,
## #   safmr_2br <dbl>, safmr_2br_90 <dbl>, safmr_2br_110 <dbl>,
## #   safmr_3br <dbl>, safmr_3br_90 <dbl>, safmr_3br_110 <dbl>,
## #   safmr_4br <dbl>, safmr_4br_90 <dbl>, safmr_4br_110 <dbl>, year <dbl>,
## #   state <chr>, area <chr>
…
Question 6: Building a Heatmap with geometry values.

I have included an extra data set which includes geometric
information of each zip code.

https://www.unitedstateszipcodes.org/zip-code-database/

look at the fmr_zip_co file.

use left_join to join fmr_zip_co to
safmr_merged.

fmr_zip_co

## # A tibble: 42,735 x 15
##    zip   type     decommissioned primary_city acceptable_cities
##    <chr> <chr>             <dbl> <chr>        <chr>            
##  1 00501 UNIQUE                0 Holtsville   <NA>             
##  2 00544 UNIQUE                0 Holtsville   <NA>             
##  3 00601 STANDARD              0 Adjuntas     <NA>             
##  4 00602 STANDARD              0 Aguada       <NA>             
##  5 00603 STANDARD              0 Aguadilla    Ramey            
##  6 00604 PO BOX                0 Aguadilla    Ramey            
##  7 00605 PO BOX                0 Aguadilla    <NA>             
##  8 00606 STANDARD              0 Maricao      <NA>             
##  9 00610 STANDARD              0 Anasco       <NA>             
## 10 00611 PO BOX                0 Angeles      <NA>             
## # i 42,725 more rows
## # i 10 more variables: unacceptable_cities <chr>, state <chr>,
## #   county <chr>, timezone <chr>, area_codes <chr>, world_region <chr>,
## #   country <chr>, latitude <dbl>, longitude <dbl>,
## #   irs_estimated_population <dbl>
…
